<?xml version="1.0" encoding="UTF-8" standalone="no"?>
<!-- Created with Inkscape (http://www.inkscape.org/) -->

<svg
   xmlns:dc="http://purl.org/dc/elements/1.1/"
   xmlns:cc="http://creativecommons.org/ns#"
   xmlns:rdf="http://www.w3.org/1999/02/22-rdf-syntax-ns#"
   xmlns:svg="http://www.w3.org/2000/svg"
   xmlns="http://www.w3.org/2000/svg"
   xmlns:sodipodi="http://sodipodi.sourceforge.net/DTD/sodipodi-0.dtd"
   xmlns:inkscape="http://www.inkscape.org/namespaces/inkscape"
   width="512"
   height="512"
   viewBox="0 0 135.46666 135.46667"
   version="1.1"
   id="svg8"
   sodipodi:docname="error.svg"
   inkscape:version="0.92.3 (2405546, 2018-03-11)">
  <defs
     id="defs2" />
  <sodipodi:namedview
     id="base"
     pagecolor="#ffffff"
     bordercolor="#666666"
     borderopacity="1.0"
     inkscape:pageopacity="0.0"
     inkscape:pageshadow="2"
     inkscape:zoom="0.98994949"
     inkscape:cx="143.1028"
     inkscape:cy="177.15242"
     inkscape:document-units="mm"
     inkscape:current-layer="layer1"
     showgrid="false"
     units="px"
     inkscape:window-width="1920"
     inkscape:window-height="1017"
     inkscape:window-x="-8"
     inkscape:window-y="-8"
     inkscape:window-maximized="1">
    <inkscape:grid
       type="xygrid"
       id="grid815"
       empspacing="8" />
  </sodipodi:namedview>
  <metadata
     id="metadata5">
    <rdf:RDF>
      <cc:Work
         rdf:about="">
        <dc:format>image/svg+xml</dc:format>
        <dc:type
           rdf:resource="http://purl.org/dc/dcmitype/StillImage" />
        <dc:title></dc:title>
      </cc:Work>
    </rdf:RDF>
  </metadata>
  <g
     inkscape:label="Layer 1"
     inkscape:groupmode="layer"
     id="layer1"
     transform="translate(0,-161.53332)">
    <circle
       style="fill:#ff5555;fill-opacity:1;stroke:none;stroke-width:0.26458332"
       id="path817"
       cx="67.73333"
       cy="229.26665"
       r="67.73333"
       inkscape:export-xdpi="96"
       inkscape:export-ydpi="96" />
    <path
       style="fill:#000000;fill-opacity:0.32596687;stroke:none;stroke-width:0.99999994px;stroke-linecap:butt;stroke-linejoin:miter;stroke-opacity:1"
       d="M 297.99414 111.72656 L 244.25586 129.45508 L 186.59961 181.25586 L 262.64062 254.91602 L 234.46289 312 L 269.71094 351.38477 L 239.01758 384.7207 L 348.15625 494.80273 A 255.99999 255.99999 0 0 0 511.61914 263.60547 L 297.99414 111.72656 z "
       id="path832"
       transform="matrix(0.26458333,0,0,0.26458333,0,161.53332)" />
    <g
       aria-label="?"
       transform="matrix(0.34375945,0,0,0.31665533,-2.9066142,153.97612)"
       style="font-style:normal;font-weight:normal;font-size:40px;line-height:1.25;font-family:sans-serif;letter-spacing:0px;word-spacing:0px;fill:#ffffff;fill-opacity:1;stroke:none"
       id="flowRoot819">
      <path
         d="m 188.9151,284.55941 c 0,-13.10507 1.36963,-24.27659 4.1089,-33.51459 2.73926,-9.34541 6.13973,-17.50922 10.2014,-24.49143 4.06167,-6.9822 8.07611,-13.42732 12.04333,-19.33534 4.06167,-5.90802 7.46213,-11.92345 10.2014,-18.04631 2.73926,-6.23028 4.1089,-13.26619 4.1089,-21.10774 v -0.16105 c 0,-9.34541 -2.12529,-16.59616 -6.37588,-21.75225 -4.15613,-5.15609 -10.01249,-7.73414 -17.56908,-7.73414 -7.65106,0 -13.60187,3.22256 -17.85246,9.66767 -4.15613,6.3377 -6.28142,15.36085 -6.37588,27.06948 v 0.16104 H 152.0767 v -0.16104 c 0.6612,-21.3763 5.62022,-37.91875 14.87705,-49.62737 9.35128,-11.70867 22.15027,-17.56302 38.39694,-17.56302 17.00234,0 30.17916,5.26351 39.53044,15.79053 9.35129,10.41959 14.02693,25.18964 14.02693,44.31015 v 0.16104 c 0,10.20476 -1.41686,18.90566 -4.25058,26.1027 -2.73927,7.19705 -6.13974,13.74958 -10.20141,19.6576 -4.06167,5.90802 -8.12334,12.03087 -12.18501,18.36857 -4.06167,6.23027 -7.50936,13.48103 -10.34309,21.75225 -2.73926,8.27123 -4.10889,18.42228 -4.10889,30.45316 z"
         style="font-style:normal;font-variant:normal;font-weight:normal;font-stretch:normal;font-size:192px;font-family:Bahnschrift;-inkscape-font-specification:Bahnschrift;fill:#ffffff;stroke-width:1.61167586"
         id="path827"
         inkscape:connector-curvature="0"
         sodipodi:nodetypes="ccsccsscsccccccscsscscccc" />
    </g>
    <circle
       style="fill:#ffffff;fill-opacity:1;stroke:none;stroke-width:0.26458332"
       id="path830"
       cx="67.73333"
       cy="258.86218"
       r="6.3499999" />
  </g>
</svg>
